{
  "pyfrc": {

  	"robot": {
  	  "w": 2,
  	  "h": 3,
      "starting_x": 15, 
      "starting_y": 15,
      "starting_angle": 0
  	},

  	"field": {
      "w": 30,
      "h": 30,
      "px_per_ft": 20,

      "objects": [
      	{ "color": "grey",
      	  "points": [ [7.25,11.21], [10.333,11.21], [10.333,27], [7.25,27] ] },

      	{ "color": "grey",
      	  "points": [ [16.83, 0], [19.90, 0], [19.90, 15.75], [16.83, 15.75] ] }
      ]
    }
  }
}
